solid Cuboctahedron
	facet normal 0.4714047503653729 0.3333335270350696 0.816496369304433
		outer loop
			vertex 0 0 1000
			vertex 866.0250575690158 0 499.9998267949885
			vertex 288.67499032217 816.4962185015862 499.9998267949885
		endloop
	endfacet
	facet normal -0.4714047503653729 -0.3333335270350696 0.816496369304433
		outer loop
			vertex 0 0 1000
			vertex -866.0250575690158 0 499.9998267949885
			vertex -288.67499032217 -816.4962185015862 499.9998267949885
		endloop
	endfacet
	facet normal 0.9428090474374904 -0.3333333167716847 0
		outer loop
			vertex 866.0250575690158 0 499.9998267949885
			vertex 577.3500672468457 -816.4962185015862 0
			vertex 866.0250575690158 0 -499.9998267949885
		endloop
	endfacet
	facet normal 0 1 0
		outer loop
			vertex 288.67499032217 816.4962185015862 499.9998267949885
			vertex 288.67499032217 816.4962185015862 -499.9998267949885
			vertex -577.3500672468457 816.4962185015862 0
		endloop
	endfacet
	facet normal -0.9428090474374904 0.3333333167716847 0
		outer loop
			vertex -866.0250575690158 0 499.9998267949885
			vertex -577.3500672468457 816.4962185015862 0
			vertex -866.0250575690158 0 -499.9998267949885
		endloop
	endfacet
	facet normal 0 -1 0
		outer loop
			vertex -288.67499032217 -816.4962185015862 499.9998267949885
			vertex -288.67499032217 -816.4962185015862 -499.9998267949885
			vertex 577.3500672468457 -816.4962185015862 0
		endloop
	endfacet
	facet normal 0.4714047503653729 0.3333335270350696 -0.816496369304433
		outer loop
			vertex 866.0250575690158 0 -499.9998267949885
			vertex 0 0 -1000
			vertex 288.67499032217 816.4962185015862 -499.9998267949885
		endloop
	endfacet
	facet normal -0.4714047503653729 -0.3333335270350696 -0.816496369304433
		outer loop
			vertex -866.0250575690158 0 -499.9998267949885
			vertex 0 0 -1000
			vertex -288.67499032217 -816.4962185015862 -499.9998267949885
		endloop
	endfacet
	facet normal -0.4082484401784584 0.5773504919479943 0.7071065128672374
		outer loop
			vertex 288.67499032217 816.4962185015862 499.9998267949885
			vertex -866.0250575690158 0 499.9998267949885
			vertex 0 0 1000
		endloop
	endfacet
	facet normal -0.4082482987571897 0.5773502919481143 0.7071067578161642
		outer loop
			vertex -866.0250575690158 0 499.9998267949885
			vertex 288.67499032217 816.4962185015862 499.9998267949885
			vertex -577.3500672468457 816.4962185015862 0
		endloop
	endfacet
	facet normal 0.4082484401784584 -0.5773504919479943 0.7071065128672374
		outer loop
			vertex -288.67499032217 -816.4962185015862 499.9998267949885
			vertex 866.0250575690158 0 499.9998267949885
			vertex 0 0 1000
		endloop
	endfacet
	facet normal 0.4082482987571897 -0.5773502919481143 0.7071067578161642
		outer loop
			vertex 866.0250575690158 0 499.9998267949885
			vertex -288.67499032217 -816.4962185015862 499.9998267949885
			vertex 577.3500672468457 -816.4962185015862 0
		endloop
	endfacet
	facet normal 0.8164965553157408 0.5773503054104409 0
		outer loop
			vertex 866.0250575690158 0 -499.9998267949885
			vertex 288.67499032217 816.4962185015862 499.9998267949885
			vertex 866.0250575690158 0 499.9998267949885
		endloop
	endfacet
	facet normal 0.8164965553157408 0.5773503054104409 0
		outer loop
			vertex 288.67499032217 816.4962185015862 499.9998267949885
			vertex 866.0250575690158 0 -499.9998267949885
			vertex 288.67499032217 816.4962185015862 -499.9998267949885
		endloop
	endfacet
	facet normal -0.8164965553157408 -0.5773503054104409 0
		outer loop
			vertex -866.0250575690158 0 -499.9998267949885
			vertex -288.67499032217 -816.4962185015862 499.9998267949885
			vertex -866.0250575690158 0 499.9998267949885
		endloop
	endfacet
	facet normal -0.8164965553157408 -0.5773503054104409 0
		outer loop
			vertex -288.67499032217 -816.4962185015862 499.9998267949885
			vertex -866.0250575690158 0 -499.9998267949885
			vertex -288.67499032217 -816.4962185015862 -499.9998267949885
		endloop
	endfacet
	facet normal 0.4082485108891661 -0.5773502919480867 -0.7071066353416843
		outer loop
			vertex 577.3500672468457 -816.4962185015862 0
			vertex 0 0 -1000
			vertex 866.0250575690158 0 -499.9998267949885
		endloop
	endfacet
	facet normal 0.4082482280465067 -0.5773504919480568 -0.7071066353416751
		outer loop
			vertex 0 0 -1000
			vertex 577.3500672468457 -816.4962185015862 0
			vertex -288.67499032217 -816.4962185015862 -499.9998267949885
		endloop
	endfacet
	facet normal -0.40824829875718976 0.5773502919481144 -0.7071067578161642
		outer loop
			vertex 288.67499032217 816.4962185015862 -499.9998267949885
			vertex -866.0250575690158 0 -499.9998267949885
			vertex -577.3500672468457 816.4962185015862 0
		endloop
	endfacet
	facet normal -0.4082484401784584 0.5773504919479943 -0.7071065128672374
		outer loop
			vertex -866.0250575690158 0 -499.9998267949885
			vertex 288.67499032217 816.4962185015862 -499.9998267949885
			vertex 0 0 -1000
		endloop
	endfacet
endsolid Cuboctahedron
