solid Icosidodecahedron
	facet normal 0.3035307090029413 0.18759230373310934 0.9341724874306011
		outer loop
			vertex 0 0 999.9997765280897
			vertex 587.7852569914666 0 809.0169781727164
			vertex 262.86555123616796 525.7311024723359 809.0169781727164
		endloop
	endfacet
	facet normal -0.3035307090029413 -0.18759230373310934 0.9341724874306011
		outer loop
			vertex 0 0 999.9997765280897
			vertex -587.7852569914666 0 809.0169781727164
			vertex -262.86555123616796 -525.7311024723359 809.0169781727164
		endloop
	endfacet
	facet normal 0.7946544715683181 -0.18759249014162724 0.5773502649682779
		outer loop
			vertex 587.7852569914666 0 809.0169781727164
			vertex 688.1909553499852 -525.7311024723359 499.99998336969554
			vertex 951.0565065861532 0 309.01699480302085
		endloop
	endfacet
	facet normal 0.18759246339819668 0.7946544578912577 0.5773502924826034
		outer loop
			vertex 262.86555123616796 525.7311024723359 809.0169781727164
			vertex 425.3254041138172 850.6508082276345 309.01699480302085
			vertex -162.45985287764933 850.6508082276345 499.99998336969554
		endloop
	endfacet
	facet normal -0.7946544715683181 0.18759249014162724 0.5773502649682779
		outer loop
			vertex -587.7852569914666 0 809.0169781727164
			vertex -688.1909553499852 525.7311024723359 499.99998336969554
			vertex -951.0565065861532 0 309.01699480302085
		endloop
	endfacet
	facet normal -0.18759246339819668 -0.7946544578912577 0.5773502924826034
		outer loop
			vertex -262.86555123616796 -525.7311024723359 809.0169781727164
			vertex -425.3254041138172 -850.6508082276345 309.01699480302085
			vertex 162.45985287764933 -850.6508082276345 499.99998336969554
		endloop
	endfacet
	facet normal 0.982246949042223 0.1875924601289844 0
		outer loop
			vertex 951.0565065861532 0 309.01699480302085
			vertex 951.0565065861532 0 -309.01699480302085
			vertex 850.6508082276345 525.7311024723359 0
		endloop
	endfacet
	facet normal 0.49112348836843694 -0.7946544589833247 0.35682209851792757
		outer loop
			vertex 688.1909553499852 -525.7311024723359 499.99998336969554
			vertex 162.45985287764933 -850.6508082276345 499.99998336969554
			vertex 525.7311024723359 -850.6508082276345 0
		endloop
	endfacet
	facet normal -0.49112348836843694 0.7946544589833245 0.35682209851792757
		outer loop
			vertex -162.45985287764933 850.6508082276345 499.99998336969554
			vertex -525.7311024723359 850.6508082276345 0
			vertex -688.1909553499852 525.7311024723359 499.99998336969554
		endloop
	endfacet
	facet normal 0.6070620094974042 0.794654463666425 0
		outer loop
			vertex 425.3254041138172 850.6508082276345 309.01699480302085
			vertex 850.6508082276345 525.7311024723359 0
			vertex 425.3254041138172 850.6508082276345 -309.01699480302085
		endloop
	endfacet
	facet normal -0.982246949042223 -0.1875924601289844 0
		outer loop
			vertex -951.0565065861532 0 309.01699480302085
			vertex -951.0565065861532 0 -309.01699480302085
			vertex -850.6508082276345 -525.7311024723359 0
		endloop
	endfacet
	facet normal -0.6070620094974042 -0.794654463666425 0
		outer loop
			vertex -425.3254041138172 -850.6508082276345 309.01699480302085
			vertex -850.6508082276345 -525.7311024723359 0
			vertex -425.3254041138172 -850.6508082276345 -309.01699480302085
		endloop
	endfacet
	facet normal 0.7946544715683181 -0.18759249014162724 -0.5773502649682779
		outer loop
			vertex 951.0565065861532 0 -309.01699480302085
			vertex 688.1909553499852 -525.7311024723359 -499.99998336969554
			vertex 587.7852569914666 0 -809.0169781727164
		endloop
	endfacet
	facet normal 0.49112348836843694 -0.7946544589833247 -0.35682209851792757
		outer loop
			vertex 525.7311024723359 -850.6508082276345 0
			vertex 162.45985287764933 -850.6508082276345 -499.99998336969554
			vertex 688.1909553499852 -525.7311024723359 -499.99998336969554
		endloop
	endfacet
	facet normal -0.49112348836843694 0.7946544589833247 -0.35682209851792757
		outer loop
			vertex -525.7311024723359 850.6508082276345 0
			vertex -162.45985287764933 850.6508082276345 -499.99998336969554
			vertex -688.1909553499852 525.7311024723359 -499.99998336969554
		endloop
	endfacet
	facet normal 0.18759246339819668 0.7946544578912577 -0.5773502924826034
		outer loop
			vertex 425.3254041138172 850.6508082276345 -309.01699480302085
			vertex 262.86555123616796 525.7311024723359 -809.0169781727164
			vertex -162.45985287764933 850.6508082276345 -499.99998336969554
		endloop
	endfacet
	facet normal -0.7946544715683181 0.18759249014162724 -0.5773502649682779
		outer loop
			vertex -951.0565065861532 0 -309.01699480302085
			vertex -688.1909553499852 525.7311024723359 -499.99998336969554
			vertex -587.7852569914666 0 -809.0169781727164
		endloop
	endfacet
	facet normal -0.18759246339819668 -0.7946544578912577 -0.5773502924826034
		outer loop
			vertex -425.3254041138172 -850.6508082276345 -309.01699480302085
			vertex -262.86555123616796 -525.7311024723359 -809.0169781727164
			vertex 162.45985287764933 -850.6508082276345 -499.99998336969554
		endloop
	endfacet
	facet normal 0.3035307090029413 0.18759230373310934 -0.9341724874306011
		outer loop
			vertex 587.7852569914666 0 -809.0169781727164
			vertex 0 0 -999.9997765280897
			vertex 262.86555123616796 525.7311024723359 -809.0169781727164
		endloop
	endfacet
	facet normal -0.3035307090029413 -0.18759230373310934 -0.9341724874306011
		outer loop
			vertex -587.7852569914666 0 -809.0169781727164
			vertex 0 0 -999.9997765280897
			vertex -262.86555123616796 -525.7311024723359 -809.0169781727164
		endloop
	endfacet
	facet normal -0.2763932035625654 0.4472136057643521 0.850650802529257
		outer loop
			vertex 262.86555123616796 525.7311024723359 809.0169781727164
			vertex -688.1909553499852 525.7311024723359 499.99998336969554
			vertex -587.7852569914666 0 809.0169781727164
		endloop
	endfacet
	facet normal -0.2763929825891788 0.4472132482218955 0.8506510622989187
		outer loop
			vertex 262.86555123616796 525.7311024723359 809.0169781727164
			vertex -587.7852569914666 0 809.0169781727164
			vertex 0 0 999.9997765280897
		endloop
	endfacet
	facet normal -0.2763932072031759 0.44721358220182617 0.8506508137339037
		outer loop
			vertex -688.1909553499852 525.7311024723359 499.99998336969554
			vertex 262.86555123616796 525.7311024723359 809.0169781727164
			vertex -162.45985287764933 850.6508082276345 499.99998336969554
		endloop
	endfacet
	facet normal 0.2763932035625654 -0.4472136057643521 0.850650802529257
		outer loop
			vertex -262.86555123616796 -525.7311024723359 809.0169781727164
			vertex 688.1909553499852 -525.7311024723359 499.99998336969554
			vertex 587.7852569914666 0 809.0169781727164
		endloop
	endfacet
	facet normal 0.2763929825891788 -0.4472132482218955 0.8506510622989187
		outer loop
			vertex -262.86555123616796 -525.7311024723359 809.0169781727164
			vertex 587.7852569914666 0 809.0169781727164
			vertex 0 0 999.9997765280897
		endloop
	endfacet
	facet normal 0.2763932072031759 -0.44721358220182617 0.8506508137339037
		outer loop
			vertex 688.1909553499852 -525.7311024723359 499.99998336969554
			vertex -262.86555123616796 -525.7311024723359 809.0169781727164
			vertex 162.45985287764933 -850.6508082276345 499.99998336969554
		endloop
	endfacet
	facet normal 0.7236067898833252 0.4472135824974462 0.5257311340072501
		outer loop
			vertex 951.0565065861532 0 309.01699480302085
			vertex 425.3254041138172 850.6508082276345 309.01699480302085
			vertex 262.86555123616796 525.7311024723359 809.0169781727164
		endloop
	endfacet
	facet normal 0.7236067921333464 0.44721361334119314 0.5257311046731034
		outer loop
			vertex 951.0565065861532 0 309.01699480302085
			vertex 262.86555123616796 525.7311024723359 809.0169781727164
			vertex 587.7852569914666 0 809.0169781727164
		endloop
	endfacet
	facet normal 0.7236068027031337 0.4472135904205234 0.525731109622526
		outer loop
			vertex 425.3254041138172 850.6508082276345 309.01699480302085
			vertex 951.0565065861532 0 309.01699480302085
			vertex 850.6508082276345 525.7311024723359 0
		endloop
	endfacet
	facet normal -0.7236067898833252 -0.4472135824974462 0.5257311340072501
		outer loop
			vertex -951.0565065861532 0 309.01699480302085
			vertex -425.3254041138172 -850.6508082276345 309.01699480302085
			vertex -262.86555123616796 -525.7311024723359 809.0169781727164
		endloop
	endfacet
	facet normal -0.7236067921333464 -0.44721361334119314 0.5257311046731034
		outer loop
			vertex -951.0565065861532 0 309.01699480302085
			vertex -262.86555123616796 -525.7311024723359 809.0169781727164
			vertex -587.7852569914666 0 809.0169781727164
		endloop
	endfacet
	facet normal -0.7236068027031337 -0.4472135904205234 0.525731109622526
		outer loop
			vertex -425.3254041138172 -850.6508082276345 309.01699480302085
			vertex -951.0565065861532 0 309.01699480302085
			vertex -850.6508082276345 -525.7311024723359 0
		endloop
	endfacet
	facet normal 0.8944271909999159 -0.4472135954999579 0
		outer loop
			vertex 688.1909553499852 -525.7311024723359 499.99998336969554
			vertex 688.1909553499852 -525.7311024723359 -499.99998336969554
			vertex 951.0565065861532 0 -309.01699480302085
		endloop
	endfacet
	facet normal 0.8944271909999159 -0.4472135954999579 0
		outer loop
			vertex 688.1909553499852 -525.7311024723359 499.99998336969554
			vertex 951.0565065861532 0 -309.01699480302085
			vertex 951.0565065861532 0 309.01699480302085
		endloop
	endfacet
	facet normal 0.8944271909999157 -0.44721359549995787 0
		outer loop
			vertex 688.1909553499852 -525.7311024723359 -499.99998336969554
			vertex 688.1909553499852 -525.7311024723359 499.99998336969554
			vertex 525.7311024723359 -850.6508082276345 0
		endloop
	endfacet
	facet normal 0 1 0
		outer loop
			vertex 425.3254041138172 850.6508082276345 309.01699480302085
			vertex -162.45985287764933 850.6508082276345 -499.99998336969554
			vertex -525.7311024723359 850.6508082276345 0
		endloop
	endfacet
	facet normal 0 1 0
		outer loop
			vertex 425.3254041138172 850.6508082276345 309.01699480302085
			vertex -525.7311024723359 850.6508082276345 0
			vertex -162.45985287764933 850.6508082276345 499.99998336969554
		endloop
	endfacet
	facet normal 0 1 0
		outer loop
			vertex -162.45985287764933 850.6508082276345 -499.99998336969554
			vertex 425.3254041138172 850.6508082276345 309.01699480302085
			vertex 425.3254041138172 850.6508082276345 -309.01699480302085
		endloop
	endfacet
	facet normal -0.8944271909999159 0.4472135954999579 0
		outer loop
			vertex -688.1909553499852 525.7311024723359 499.99998336969554
			vertex -688.1909553499852 525.7311024723359 -499.99998336969554
			vertex -951.0565065861532 0 -309.01699480302085
		endloop
	endfacet
	facet normal -0.8944271909999159 0.4472135954999579 0
		outer loop
			vertex -688.1909553499852 525.7311024723359 499.99998336969554
			vertex -951.0565065861532 0 -309.01699480302085
			vertex -951.0565065861532 0 309.01699480302085
		endloop
	endfacet
	facet normal -0.8944271909999157 0.44721359549995787 0
		outer loop
			vertex -688.1909553499852 525.7311024723359 -499.99998336969554
			vertex -688.1909553499852 525.7311024723359 499.99998336969554
			vertex -525.7311024723359 850.6508082276345 0
		endloop
	endfacet
	facet normal 0 -1 0
		outer loop
			vertex -425.3254041138172 -850.6508082276345 309.01699480302085
			vertex 162.45985287764933 -850.6508082276345 -499.99998336969554
			vertex 525.7311024723359 -850.6508082276345 0
		endloop
	endfacet
	facet normal 0 -1 0
		outer loop
			vertex -425.3254041138172 -850.6508082276345 309.01699480302085
			vertex 525.7311024723359 -850.6508082276345 0
			vertex 162.45985287764933 -850.6508082276345 499.99998336969554
		endloop
	endfacet
	facet normal 0 -1 0
		outer loop
			vertex 162.45985287764933 -850.6508082276345 -499.99998336969554
			vertex -425.3254041138172 -850.6508082276345 309.01699480302085
			vertex -425.3254041138172 -850.6508082276345 -309.01699480302085
		endloop
	endfacet
	facet normal 0.723606802627373 0.4472135893819784 -0.5257311106102411
		outer loop
			vertex 587.7852569914666 0 -809.0169781727164
			vertex 425.3254041138172 850.6508082276345 -309.01699480302085
			vertex 850.6508082276345 525.7311024723359 0
		endloop
	endfacet
	facet normal 0.723606801145316 0.4472135910623795 -0.5257311112206825
		outer loop
			vertex 587.7852569914666 0 -809.0169781727164
			vertex 850.6508082276345 525.7311024723359 0
			vertex 951.0565065861532 0 -309.01699480302085
		endloop
	endfacet
	facet normal 0.7236067730708621 0.4472136015599294 -0.5257311409321027
		outer loop
			vertex 425.3254041138172 850.6508082276345 -309.01699480302085
			vertex 587.7852569914666 0 -809.0169781727164
			vertex 262.86555123616796 525.7311024723359 -809.0169781727164
		endloop
	endfacet
	facet normal -0.723606802627373 -0.4472135893819784 -0.5257311106102411
		outer loop
			vertex -587.7852569914666 0 -809.0169781727164
			vertex -425.3254041138172 -850.6508082276345 -309.01699480302085
			vertex -850.6508082276345 -525.7311024723359 0
		endloop
	endfacet
	facet normal -0.723606801145316 -0.4472135910623795 -0.5257311112206825
		outer loop
			vertex -587.7852569914666 0 -809.0169781727164
			vertex -850.6508082276345 -525.7311024723359 0
			vertex -951.0565065861532 0 -309.01699480302085
		endloop
	endfacet
	facet normal -0.7236067730708621 -0.4472136015599294 -0.5257311409321027
		outer loop
			vertex -425.3254041138172 -850.6508082276345 -309.01699480302085
			vertex -587.7852569914666 0 -809.0169781727164
			vertex -262.86555123616796 -525.7311024723359 -809.0169781727164
		endloop
	endfacet
	facet normal 0.27639324576470403 -0.4472133326262799 -0.8506509324140827
		outer loop
			vertex 688.1909553499852 -525.7311024723359 -499.99998336969554
			vertex -262.86555123616796 -525.7311024723359 -809.0169781727164
			vertex 0 0 -999.9997765280897
		endloop
	endfacet
	facet normal 0.27639291430474644 -0.4472136901686185 -0.8506508521408156
		outer loop
			vertex 688.1909553499852 -525.7311024723359 -499.99998336969554
			vertex 0 0 -999.9997765280897
			vertex 587.7852569914666 0 -809.0169781727164
		endloop
	endfacet
	facet normal 0.2763932072031759 -0.44721358220182617 -0.8506508137339037
		outer loop
			vertex -262.86555123616796 -525.7311024723359 -809.0169781727164
			vertex 688.1909553499852 -525.7311024723359 -499.99998336969554
			vertex 162.45985287764933 -850.6508082276345 -499.99998336969554
		endloop
	endfacet
	facet normal -0.27639294177767015 0.4472135123599489 -0.8506509366938729
		outer loop
			vertex -162.45985287764933 850.6508082276345 -499.99998336969554
			vertex 0 0 -999.9997765280897
			vertex -587.7852569914666 0 -809.0169781727164
		endloop
	endfacet
	facet normal -0.27639321898443936 0.44721360126431003 -0.8506507998841984
		outer loop
			vertex -162.45985287764933 850.6508082276345 -499.99998336969554
			vertex -587.7852569914666 0 -809.0169781727164
			vertex -688.1909553499852 525.7311024723359 -499.99998336969554
		endloop
	endfacet
	facet normal -0.2763933943847953 0.4472133802909835 -0.8506508590656705
		outer loop
			vertex 0 0 -999.9997765280897
			vertex -162.45985287764933 850.6508082276345 -499.99998336969554
			vertex 262.86555123616796 525.7311024723359 -809.0169781727164
		endloop
	endfacet
endsolid Icosidodecahedron
