solid Truncated Cube
	facet normal 0.2770369512372521 -0.16910219148002345 0.9458620282503267
		outer loop
			vertex 0 0 999.9997677956966
			vertex 246.61096699567958 -479.84127221099226 841.9824706978592
			vertex 539.5040642199259 0 841.9824706978592
		endloop
	endfacet
	facet normal -0.6688255914777843 0.4082481982054371 0.6212935995537102
		outer loop
			vertex -460.4955116392617 281.08449141989723 841.9824706978592
			vertex -572.2304865720233 678.5980530020873 460.4955116392617
			vertex -865.1234878280153 198.75678079109508 460.4955116392617
		endloop
	endfacet
	facet normal 0.8983298409846495 0.4082488247934584 0.1622849156614816
		outer loop
			vertex 841.9824706978592 281.08449141989723 460.4955116392617
			vertex 976.8589426020492 198.75678079109508 -79.00853338701337
			vertex 730.2474957650975 678.5980530020873 79.00853338701337
		endloop
	endfacet
	facet normal 0.04753195146618844 -0.9855985721961864 0.16228422004204401
		outer loop
			vertex 134.8759920629179 -877.3548337931824 460.4955116392617
			vertex -269.7519841258358 -959.6825444219845 79.00853338701337
			vertex 269.7519841258358 -959.6825444219845 -79.00853338701337
		endloop
	endfacet
	facet normal -0.8983298409846495 -0.4082488247934584 -0.1622849156614816
		outer loop
			vertex -976.8589426020492 -198.75678079109508 79.00853338701337
			vertex -841.9824706978592 -281.08449141989723 -460.4955116392617
			vertex -730.2474957650975 -678.5980530020873 -79.00853338701337
		endloop
	endfacet
	facet normal -0.04753195146618844 0.9855985721961864 -0.16228422004204401
		outer loop
			vertex -269.7519841258358 959.6825444219845 79.00853338701337
			vertex 269.7519841258358 959.6825444219845 -79.00853338701337
			vertex -134.8759920629179 877.3548337931824 -460.4955116392617
		endloop
	endfacet
	facet normal 0.6688255914777843 -0.4082481982054371 -0.6212935995537102
		outer loop
			vertex 865.1234878280153 -198.75678079109508 -460.4955116392617
			vertex 572.2304865720233 -678.5980530020873 -460.4955116392617
			vertex 460.4955116392617 -281.08449141989723 -841.9824706978592
		endloop
	endfacet
	facet normal -0.2770369512372521 0.16910219148002345 -0.9458620282503267
		outer loop
			vertex -539.5040642199259 0 -841.9824706978592
			vertex -246.61096699567958 479.84127221099226 -841.9824706978592
			vertex 0 0 -999.9997677956966
		endloop
	endfacet
	facet normal 0.19875683786384427 0.7071067866093077 0.6785983434502509
		outer loop
			vertex 539.5040642199259 0 841.9824706978592
			vertex 730.2474957650975 678.5980530020873 79.00853338701337
			vertex 269.7519841258358 959.6825444219845 -79.00853338701337
		endloop
	endfacet
	facet normal 0.19875682575270495 0.707106750884065 0.6785983842236065
		outer loop
			vertex -460.4955116392617 281.08449141989723 841.9824706978592
			vertex 539.5040642199259 0 841.9824706978592
			vertex -572.2304865720233 678.5980530020873 460.4955116392617
		endloop
	endfacet
	facet normal 0.19875696847094226 0.7071072586252644 0.6785978133502232
		outer loop
			vertex 539.5040642199259 0 841.9824706978592
			vertex -460.4955116392617 281.08449141989723 841.9824706978592
			vertex 0 0 999.9997677956966
		endloop
	endfacet
	facet normal 0.19875686268542309 0.7071067852045813 0.6785983376439189
		outer loop
			vertex -572.2304865720233 678.5980530020873 460.4955116392617
			vertex 539.5040642199259 0 841.9824706978592
			vertex -269.7519841258358 959.6825444219845 79.00853338701337
		endloop
	endfacet
	facet normal 0.19875686689325306 0.7071067866093085 0.678598334947733
		outer loop
			vertex -269.7519841258358 959.6825444219845 79.00853338701337
			vertex 539.5040642199259 0 841.9824706978592
			vertex 269.7519841258358 959.6825444219845 -79.00853338701337
		endloop
	endfacet
	facet normal 0.19875690667738158 0.7071067672668809 0.6785983434502473
		outer loop
			vertex 730.2474957650975 678.5980530020873 79.00853338701337
			vertex 539.5040642199259 0 841.9824706978592
			vertex 841.9824706978592 281.08449141989723 460.4955116392617
		endloop
	endfacet
	facet normal -0.5380555059085528 -0.5000003282597989 0.6785985148094449
		outer loop
			vertex -460.4955116392617 281.08449141989723 841.9824706978592
			vertex -976.8589426020492 -198.75678079109508 79.00853338701337
			vertex -730.2474957650975 -678.5980530020873 -79.00853338701337
		endloop
	endfacet
	facet normal -0.5380559719716491 -0.4999999761263553 0.6785984047279275
		outer loop
			vertex 246.61096699567958 -479.84127221099226 841.9824706978592
			vertex -460.4955116392617 281.08449141989723 841.9824706978592
			vertex 134.8759920629179 -877.3548337931824 460.4955116392617
		endloop
	endfacet
	facet normal -0.5380563523656837 -0.5000003296156169 0.6785978426602973
		outer loop
			vertex -460.4955116392617 281.08449141989723 841.9824706978592
			vertex 246.61096699567958 -479.84127221099226 841.9824706978592
			vertex 0 0 999.9997677956966
		endloop
	endfacet
	facet normal -0.5380561032085639 -0.5000000028285069 0.6785982809965764
		outer loop
			vertex 134.8759920629179 -877.3548337931824 460.4955116392617
			vertex -460.4955116392617 281.08449141989723 841.9824706978592
			vertex -269.7519841258358 -959.6825444219845 79.00853338701337
		endloop
	endfacet
	facet normal -0.5380560003378727 -0.5000000264624103 0.6785983451482916
		outer loop
			vertex -269.7519841258358 -959.6825444219845 79.00853338701337
			vertex -460.4955116392617 281.08449141989723 841.9824706978592
			vertex -730.2474957650975 -678.5980530020873 -79.00853338701337
		endloop
	endfacet
	facet normal -0.5380564268982773 -0.49999933717113515 0.6785985148096659
		outer loop
			vertex -976.8589426020492 -198.75678079109508 79.00853338701337
			vertex -460.4955116392617 281.08449141989723 841.9824706978592
			vertex -865.1234878280153 198.75678079109508 460.4955116392617
		endloop
	endfacet
	facet normal 0.8191405821838089 -0.5000001219769606 0.2810846574300973
		outer loop
			vertex 246.61096699567958 -479.84127221099226 841.9824706978592
			vertex 269.7519841258358 -959.6825444219845 -79.00853338701337
			vertex 572.2304865720233 -678.5980530020873 -460.4955116392617
		endloop
	endfacet
	facet normal 0.8191406463679244 -0.4999996834340879 0.2810852504735014
		outer loop
			vertex 841.9824706978592 281.08449141989723 460.4955116392617
			vertex 246.61096699567958 -479.84127221099226 841.9824706978592
			vertex 976.8589426020492 198.75678079109508 -79.00853338701337
		endloop
	endfacet
	facet normal 0.819140662602487 -0.5000000200617751 0.28108460436207294
		outer loop
			vertex 246.61096699567958 -479.84127221099226 841.9824706978592
			vertex 841.9824706978592 281.08449141989723 460.4955116392617
			vertex 539.5040642199259 0 841.9824706978592
		endloop
	endfacet
	facet normal 0.8191403774804917 -0.5000006400406961 0.2810843324342572
		outer loop
			vertex 976.8589426020492 198.75678079109508 -79.00853338701337
			vertex 246.61096699567958 -479.84127221099226 841.9824706978592
			vertex 865.1234878280153 -198.75678079109508 -460.4955116392617
		endloop
	endfacet
	facet normal 0.8191407221908181 -0.49999989260609773 0.28108465743009786
		outer loop
			vertex 865.1234878280153 -198.75678079109508 -460.4955116392617
			vertex 246.61096699567958 -479.84127221099226 841.9824706978592
			vertex 572.2304865720233 -678.5980530020873 -460.4955116392617
		endloop
	endfacet
	facet normal 0.8191407038340821 -0.4999999664995516 0.2810845794821409
		outer loop
			vertex 269.7519841258358 -959.6825444219845 -79.00853338701337
			vertex 246.61096699567958 -479.84127221099226 841.9824706978592
			vertex 134.8759920629179 -877.3548337931824 460.4955116392617
		endloop
	endfacet
	facet normal -0.8191406420296821 0.500000023932603 -0.2810846574301
		outer loop
			vertex -572.2304865720233 678.5980530020873 460.4955116392617
			vertex -134.8759920629179 877.3548337931824 -460.4955116392617
			vertex -246.61096699567958 479.84127221099226 -841.9824706978592
		endloop
	endfacet
	facet normal -0.8191401910489277 0.5000004293746427 -0.28108525047305344
		outer loop
			vertex -976.8589426020492 -198.75678079109508 79.00853338701337
			vertex -572.2304865720233 678.5980530020873 460.4955116392617
			vertex -841.9824706978592 -281.08449141989723 -460.4955116392617
		endloop
	endfacet
	facet normal -0.8191409995917687 0.5000000619304173 -0.28108354782408845
		outer loop
			vertex -572.2304865720233 678.5980530020873 460.4955116392617
			vertex -976.8589426020492 -198.75678079109508 79.00853338701337
			vertex -865.1234878280153 198.75678079109508 460.4955116392617
		endloop
	endfacet
	facet normal -0.8191406735932366 0.49999998096056836 -0.2810846418868344
		outer loop
			vertex -841.9824706978592 -281.08449141989723 -460.4955116392617
			vertex -572.2304865720233 678.5980530020873 460.4955116392617
			vertex -539.5040642199259 0 -841.9824706978592
		endloop
	endfacet
	facet normal -0.8191406493354806 0.5000000119636501 -0.28108465743010014
		outer loop
			vertex -539.5040642199259 0 -841.9824706978592
			vertex -572.2304865720233 678.5980530020873 460.4955116392617
			vertex -246.61096699567958 479.84127221099226 -841.9824706978592
		endloop
	endfacet
	facet normal -0.8191405593533627 0.5000002031995765 -0.28108457948212373
		outer loop
			vertex -134.8759920629179 877.3548337931824 -460.4955116392617
			vertex -572.2304865720233 678.5980530020873 460.4955116392617
			vertex -269.7519841258358 959.6825444219845 79.00853338701337
		endloop
	endfacet
	facet normal 0.5380561213927274 0.5000002826207796 -0.6785980604238089
		outer loop
			vertex 865.1234878280153 -198.75678079109508 -460.4955116392617
			vertex 0 0 -999.9997677956966
			vertex -246.61096699567958 479.84127221099226 -841.9824706978592
		endloop
	endfacet
	facet normal 0.538055989749141 0.4999999887914363 -0.678598381300483
		outer loop
			vertex 730.2474957650975 678.5980530020873 79.00853338701337
			vertex 865.1234878280153 -198.75678079109508 -460.4955116392617
			vertex 269.7519841258358 959.6825444219845 -79.00853338701337
		endloop
	endfacet
	facet normal 0.5380549788909341 0.5000002210293509 -0.6785990116860446
		outer loop
			vertex 865.1234878280153 -198.75678079109508 -460.4955116392617
			vertex 730.2474957650975 678.5980530020873 79.00853338701337
			vertex 976.8589426020492 198.75678079109508 -79.00853338701337
		endloop
	endfacet
	facet normal 0.5380560989986503 0.5000000110199126 -0.6785982782990551
		outer loop
			vertex 269.7519841258358 959.6825444219845 -79.00853338701337
			vertex 865.1234878280153 -198.75678079109508 -460.4955116392617
			vertex -134.8759920629179 877.3548337931824 -460.4955116392617
		endloop
	endfacet
	facet normal 0.5380560259761675 0.49999994316222585 -0.6785983861965078
		outer loop
			vertex -134.8759920629179 877.3548337931824 -460.4955116392617
			vertex 865.1234878280153 -198.75678079109508 -460.4955116392617
			vertex -246.61096699567958 479.84127221099226 -841.9824706978592
		endloop
	endfacet
	facet normal 0.5380561983838794 0.4999997818016158 -0.6785983683881239
		outer loop
			vertex 0 0 -999.9997677956966
			vertex 865.1234878280153 -198.75678079109508 -460.4955116392617
			vertex 460.4955116392617 -281.08449141989723 -841.9824706978592
		endloop
	endfacet
	facet normal -0.19875712373384596 -0.7071067062556227 -0.678598343450213
		outer loop
			vertex -730.2474957650975 -678.5980530020873 -79.00853338701337
			vertex -539.5040642199259 0 -841.9824706978592
			vertex 0 0 -999.9997677956966
		endloop
	endfacet
	facet normal -0.19875685567656112 -0.7071067894827617 -0.6785983352388568
		outer loop
			vertex 269.7519841258358 -959.6825444219845 -79.00853338701337
			vertex -730.2474957650975 -678.5980530020873 -79.00853338701337
			vertex 572.2304865720233 -678.5980530020873 -460.4955116392617
		endloop
	endfacet
	facet normal -0.19875686088106492 -0.7071068079985505 -0.6785983144208404
		outer loop
			vertex -730.2474957650975 -678.5980530020873 -79.00853338701337
			vertex 269.7519841258358 -959.6825444219845 -79.00853338701337
			vertex -269.7519841258358 -959.6825444219845 79.00853338701337
		endloop
	endfacet
	facet normal -0.1987568665260611 -0.707106750884067 -0.6785983722813658
		outer loop
			vertex 572.2304865720233 -678.5980530020873 -460.4955116392617
			vertex -730.2474957650975 -678.5980530020873 -79.00853338701337
			vertex 460.4955116392617 -281.08449141989723 -841.9824706978592
		endloop
	endfacet
	facet normal -0.19875667126503171 -0.7071069824406349 -0.6785981881874897
		outer loop
			vertex 460.4955116392617 -281.08449141989723 -841.9824706978592
			vertex -730.2474957650975 -678.5980530020873 -79.00853338701337
			vertex 0 0 -999.9997677956966
		endloop
	endfacet
	facet normal -0.19875690667738158 -0.7071067672668809 -0.6785983434502473
		outer loop
			vertex -539.5040642199259 0 -841.9824706978592
			vertex -730.2474957650975 -678.5980530020873 -79.00853338701337
			vertex -841.9824706978592 -281.08449141989723 -460.4955116392617
		endloop
	endfacet
endsolid Truncated Cube
