solid Truncated Octahedron
	facet normal 0.2981429661012384 -0.3333339352330173 0.8944267769842463
		outer loop
			vertex -66.66664136845611 -596.2845783057093 799.9996205268416
			vertex 599.9997153951311 0 799.9996205268416
			vertex 0 0 1000
		endloop
	endfacet
	facet normal 0.2981423853312226 -0.33333328591246697 0.894427212562211
		outer loop
			vertex 599.9997153951311 0 799.9996205268416
			vertex -66.66664136845611 -596.2845783057093 799.9996205268416
			vertex 533.3331119739909 -596.2845783057093 599.9997153951311
		endloop
	endfacet
	facet normal -0.5962847271412867 0.6666666861538061 0.44721365559511267
		outer loop
			vertex -199.9999051317104 894.4267725902744 399.9998102634208
			vertex -866.6663188162715 298.14228915285463 399.9998102634208
			vertex -399.9998102634208 447.2133862951372 799.9996205268416
		endloop
	endfacet
	facet normal -0.5962847271412867 0.6666666861538061 0.44721365559511256
		outer loop
			vertex -866.6663188162715 298.14228915285463 399.9998102634208
			vertex -199.9999051317104 894.4267725902744 399.9998102634208
			vertex -666.6664136845611 745.3556754479918 0
		endloop
	endfacet
	facet normal 0.7453559797841426 0.6666666808833456 6.697811908080679e-8
		outer loop
			vertex 933.3329222374117 298.14228915285463 -199.9999051317104
			vertex 399.9998102634208 894.4267725902744 199.9999051317104
			vertex 799.9996205268416 447.2133862951372 399.9998102634208
		endloop
	endfacet
	facet normal 0.7453559797841426 0.6666666808833456 6.697811900563536e-8
		outer loop
			vertex 399.9998102634208 894.4267725902744 199.9999051317104
			vertex 933.3329222374117 298.14228915285463 -199.9999051317104
			vertex 533.3331119739909 745.3556754479918 -399.9998102634208
		endloop
	endfacet
	facet normal -0.7453559797841425 -0.6666666808833456 -6.697811900563536e-8
		outer loop
			vertex -933.3329222374117 -298.14228915285463 199.9999051317104
			vertex -399.9998102634208 -894.4267725902744 -199.9999051317104
			vertex -533.3331119739909 -745.3556754479918 399.9998102634208
		endloop
	endfacet
	facet normal -0.7453559797841426 -0.6666666808833456 -6.697811908080679e-8
		outer loop
			vertex -399.9998102634208 -894.4267725902744 -199.9999051317104
			vertex -933.3329222374117 -298.14228915285463 199.9999051317104
			vertex -799.9996205268416 -447.2133862951372 -399.9998102634208
		endloop
	endfacet
	facet normal 0.5962847271412867 -0.6666666861538061 -0.44721365559511256
		outer loop
			vertex 199.9999051317104 -894.4267725902744 -399.9998102634208
			vertex 866.6663188162715 -298.14228915285463 -399.9998102634208
			vertex 666.6664136845611 -745.3556754479918 0
		endloop
	endfacet
	facet normal 0.5962847271412866 -0.666666686153806 -0.4472136555951127
		outer loop
			vertex 866.6663188162715 -298.14228915285463 -399.9998102634208
			vertex 199.9999051317104 -894.4267725902744 -399.9998102634208
			vertex 399.9998102634208 -447.2133862951372 -799.9996205268416
		endloop
	endfacet
	facet normal -0.2981423853312226 0.33333328591246697 -0.894427212562211
		outer loop
			vertex 66.66664136845611 596.2845783057093 -799.9996205268416
			vertex -599.9997153951311 0 -799.9996205268416
			vertex -533.3331119739909 596.2845783057093 -599.9997153951311
		endloop
	endfacet
	facet normal -0.2981429661012384 0.3333339352330173 -0.8944267769842463
		outer loop
			vertex -599.9997153951311 0 -799.9996205268416
			vertex 66.66664136845611 596.2845783057093 -799.9996205268416
			vertex 0 0 -1000
		endloop
	endfacet
	facet normal 0.25819889031048665 0.5773502666703577 0.7745966709314599
		outer loop
			vertex 599.9997153951311 0 799.9996205268416
			vertex 399.9998102634208 894.4267725902744 199.9999051317104
			vertex -199.9999051317104 894.4267725902744 399.9998102634208
		endloop
	endfacet
	facet normal 0.25819889031048665 0.5773502666703577 0.7745966709314599
		outer loop
			vertex -399.9998102634208 447.2133862951372 799.9996205268416
			vertex 599.9997153951311 0 799.9996205268416
			vertex -199.9999051317104 894.4267725902744 399.9998102634208
		endloop
	endfacet
	facet normal 0.25819925773344615 0.5773510882530662 0.7745959360846773
		outer loop
			vertex 599.9997153951311 0 799.9996205268416
			vertex -399.9998102634208 447.2133862951372 799.9996205268416
			vertex 0 0 1000
		endloop
	endfacet
	facet normal 0.25819889031048665 0.5773502666703577 0.7745966709314599
		outer loop
			vertex 399.9998102634208 894.4267725902744 199.9999051317104
			vertex 599.9997153951311 0 799.9996205268416
			vertex 799.9996205268416 447.2133862951372 399.9998102634208
		endloop
	endfacet
	facet normal -0.6024640650505817 -0.1924500729033053 0.7745966819979551
		outer loop
			vertex -399.9998102634208 447.2133862951372 799.9996205268416
			vertex -933.3329222374117 -298.14228915285463 199.9999051317104
			vertex -533.3331119739909 -745.3556754479918 399.9998102634208
		endloop
	endfacet
	facet normal -0.6024640699808064 -0.19245007120725632 0.7745966785847225
		outer loop
			vertex -66.66664136845611 -596.2845783057093 799.9996205268416
			vertex -399.9998102634208 447.2133862951372 799.9996205268416
			vertex -533.3331119739909 -745.3556754479918 399.9998102634208
		endloop
	endfacet
	facet normal -0.6024649193368462 -0.19245034252406756 0.7745959505644322
		outer loop
			vertex -399.9998102634208 447.2133862951372 799.9996205268416
			vertex -66.66664136845611 -596.2845783057093 799.9996205268416
			vertex 0 0 1000
		endloop
	endfacet
	facet normal -0.6024640261532436 -0.19245011639184934 0.7745967014466222
		outer loop
			vertex -933.3329222374117 -298.14228915285463 199.9999051317104
			vertex -399.9998102634208 447.2133862951372 799.9996205268416
			vertex -866.6663188162715 298.14228915285463 399.9998102634208
		endloop
	endfacet
	facet normal 0.9467292630283931 -0.1924500316694601 0.2581989307416658
		outer loop
			vertex 533.3331119739909 -596.2845783057093 599.9997153951311
			vertex 866.6663188162715 -298.14228915285463 -399.9998102634208
			vertex 933.3329222374117 298.14228915285463 -199.9999051317104
		endloop
	endfacet
	facet normal 0.9467292640426952 -0.19245004300968727 0.25819891857005595
		outer loop
			vertex 799.9996205268416 447.2133862951372 399.9998102634208
			vertex 533.3331119739909 -596.2845783057093 599.9997153951311
			vertex 933.3329222374117 298.14228915285463 -199.9999051317104
		endloop
	endfacet
	facet normal 0.9467292579568889 -0.19245003620555096 0.2581989459561773
		outer loop
			vertex 533.3331119739909 -596.2845783057093 599.9997153951311
			vertex 799.9996205268416 447.2133862951372 399.9998102634208
			vertex 599.9997153951311 0 799.9996205268416
		endloop
	endfacet
	facet normal 0.9467292599854924 -0.19245005888600725 0.2581989216129578
		outer loop
			vertex 866.6663188162715 -298.14228915285463 -399.9998102634208
			vertex 533.3331119739909 -596.2845783057093 599.9997153951311
			vertex 666.6664136845611 -745.3556754479918 0
		endloop
	endfacet
	facet normal 0.08606627218520539 -0.9622504649936527 0.258198836968026
		outer loop
			vertex -533.3331119739909 -745.3556754479918 399.9998102634208
			vertex 199.9999051317104 -894.4267725902744 -399.9998102634208
			vertex 666.6664136845611 -745.3556754479918 0
		endloop
	endfacet
	facet normal 0.08606627445325077 -0.9622504629650515 0.2581988437721627
		outer loop
			vertex 533.3331119739909 -596.2845783057093 599.9997153951311
			vertex -533.3331119739909 -745.3556754479918 399.9998102634208
			vertex 666.6664136845611 -745.3556754479918 0
		endloop
	endfacet
	facet normal 0.08606627499758168 -0.9622504635736321 0.2581988413226734
		outer loop
			vertex -533.3331119739909 -745.3556754479918 399.9998102634208
			vertex 533.3331119739909 -596.2845783057093 599.9997153951311
			vertex -66.66664136845611 -596.2845783057093 799.9996205268416
		endloop
	endfacet
	facet normal 0.0860662817109969 -0.9622504619507507 0.25819884513299063
		outer loop
			vertex 199.9999051317104 -894.4267725902744 -399.9998102634208
			vertex -533.3331119739909 -745.3556754479918 399.9998102634208
			vertex -399.9998102634208 -894.4267725902744 -199.9999051317104
		endloop
	endfacet
	facet normal -0.9467292589711906 0.19245004754577844 -0.2581989337845683
		outer loop
			vertex -666.6664136845611 745.3556754479918 0
			vertex -599.9997153951311 0 -799.9996205268416
			vertex -799.9996205268416 -447.2133862951372 -399.9998102634208
		endloop
	endfacet
	facet normal -0.9467292640426952 0.19245004300968716 -0.25819891857005595
		outer loop
			vertex -933.3329222374117 -298.14228915285463 199.9999051317104
			vertex -666.6664136845611 745.3556754479918 0
			vertex -799.9996205268416 -447.2133862951372 -399.9998102634208
		endloop
	endfacet
	facet normal -0.9467292579568889 0.1924500362055508 -0.2581989459561775
		outer loop
			vertex -666.6664136845611 745.3556754479918 0
			vertex -933.3329222374117 -298.14228915285463 199.9999051317104
			vertex -866.6663188162715 298.14228915285463 399.9998102634208
		endloop
	endfacet
	facet normal -0.946729268099897 0.19245002713336973 -0.25819891552715474
		outer loop
			vertex -599.9997153951311 0 -799.9996205268416
			vertex -666.6664136845611 745.3556754479918 0
			vertex -533.3331119739909 596.2845783057093 -599.9997153951311
		endloop
	endfacet
	facet normal -0.08606627545119082 0.9622504631679117 -0.2581988426835009
		outer loop
			vertex 399.9998102634208 894.4267725902744 199.9999051317104
			vertex 66.66664136845611 596.2845783057093 -799.9996205268416
			vertex -533.3331119739909 596.2845783057093 -599.9997153951311
		endloop
	endfacet
	facet normal -0.08606627445325087 0.9622504629650516 -0.25819884377216273
		outer loop
			vertex -666.6664136845611 745.3556754479918 0
			vertex 399.9998102634208 894.4267725902744 199.9999051317104
			vertex -533.3331119739909 596.2845783057093 -599.9997153951311
		endloop
	endfacet
	facet normal -0.08606627717490532 0.9622504660079534 -0.25819883152471595
		outer loop
			vertex 399.9998102634208 894.4267725902744 199.9999051317104
			vertex -666.6664136845611 745.3556754479918 0
			vertex -199.9999051317104 894.4267725902744 399.9998102634208
		endloop
	endfacet
	facet normal -0.08606627300170162 0.9622504631679116 -0.2581988434999972
		outer loop
			vertex 66.66664136845611 596.2845783057093 -799.9996205268416
			vertex 399.9998102634208 894.4267725902744 199.9999051317104
			vertex 533.3331119739909 745.3556754479918 -399.9998102634208
		endloop
	endfacet
	facet normal 0.6024643770338209 0.19245052908241925 -0.7745963260054536
		outer loop
			vertex 866.6663188162715 -298.14228915285463 -399.9998102634208
			vertex 0 0 -1000
			vertex 66.66664136845611 596.2845783057093 -799.9996205268416
		endloop
	endfacet
	facet normal 0.6024640636302787 0.19245009108755642 -0.7745966785847218
		outer loop
			vertex 533.3331119739909 745.3556754479918 -399.9998102634208
			vertex 866.6663188162715 -298.14228915285463 -399.9998102634208
			vertex 66.66664136845611 596.2845783057093 -799.9996205268416
		endloop
	endfacet
	facet normal 0.6024640823382896 0.19245009706361146 -0.7745966625492838
		outer loop
			vertex 866.6663188162715 -298.14228915285463 -399.9998102634208
			vertex 533.3331119739909 745.3556754479918 -399.9998102634208
			vertex 933.3329222374117 298.14228915285463 -199.9999051317104
		endloop
	endfacet
	facet normal 0.6024642518868584 0.1924494097332044 -0.7745967014464682
		outer loop
			vertex 0 0 -1000
			vertex 866.6663188162715 -298.14228915285463 -399.9998102634208
			vertex 399.9998102634208 -447.2133862951372 -799.9996205268416
		endloop
	endfacet
	facet normal -0.25819876783599405 -0.5773508143925532 -0.7745963035079823
		outer loop
			vertex -799.9996205268416 -447.2133862951372 -399.9998102634208
			vertex 0 0 -1000
			vertex 399.9998102634208 -447.2133862951372 -799.9996205268416
		endloop
	endfacet
	facet normal -0.25819889031048665 -0.5773502666703577 -0.7745966709314599
		outer loop
			vertex 199.9999051317104 -894.4267725902744 -399.9998102634208
			vertex -799.9996205268416 -447.2133862951372 -399.9998102634208
			vertex 399.9998102634208 -447.2133862951372 -799.9996205268416
		endloop
	endfacet
	facet normal -0.25819889031048665 -0.5773502666703577 -0.7745966709314599
		outer loop
			vertex -799.9996205268416 -447.2133862951372 -399.9998102634208
			vertex 199.9999051317104 -894.4267725902744 -399.9998102634208
			vertex -399.9998102634208 -894.4267725902744 -199.9999051317104
		endloop
	endfacet
	facet normal -0.25819950268289604 -0.5773499928089352 -0.7745966709312839
		outer loop
			vertex 0 0 -1000
			vertex -799.9996205268416 -447.2133862951372 -399.9998102634208
			vertex -599.9997153951311 0 -799.9996205268416
		endloop
	endfacet
endsolid Truncated Octahedron
