solid Truncated Tetrahedron
	facet normal 0.41030524676022334 -0.2721657075889621 0.8703880928032228
		outer loop
			vertex 0 0 999.9999674075561
			vertex 299.9846131498029 -710.6687709675053 636.3634100471553
			vertex 771.3889406328021 0 636.3634100471553
		endloop
	endfacet
	facet normal -0.8206096825274978 0.5443313994588714 0.17407778866146506
		outer loop
			vertex -642.8241322695632 426.4012444898297 636.3634100471553
			vertex -514.2592334529566 852.8024889796594 -90.90907150007467
			vertex -985.664013202793 142.13371801215408 -90.90907150007467
		endloop
	endfacet
	facet normal 0.6564879076001754 0.5443310720831597 -0.5222330046440394
		outer loop
			vertex 899.9537489960413 426.4012444898297 -90.90907150007467
			vertex 557.1142298762812 142.13371801215408 -818.1814625939371
			vertex 257.1296167264783 852.8024889796594 -454.5452670470059
		endloop
	endfacet
	facet normal -0.24618300375979532 -0.8164965212930131 -0.5222330508271312
		outer loop
			vertex -42.85494215130421 -994.9363878985484 -90.90907150007467
			vertex -685.6790382395203 -568.5350529553513 -454.5452670470059
			vertex 85.70987525727166 -568.5350529553513 -818.1814625939371
		endloop
	endfacet
	facet normal 0.24618297171911668 0.8164966018437078 0.5222329399925116
		outer loop
			vertex 771.3889406328021 0 636.3634100471553
			vertex 257.1296167264783 852.8024889796594 -454.5452670470059
			vertex -514.2592334529566 852.8024889796594 -90.90907150007467
		endloop
	endfacet
	facet normal 0.24618296364834122 0.8164965980197461 0.5222329497757688
		outer loop
			vertex -642.8241322695632 426.4012444898297 636.3634100471553
			vertex 771.3889406328021 0 636.3634100471553
			vertex -514.2592334529566 852.8024889796594 -90.90907150007467
		endloop
	endfacet
	facet normal 0.24618302603848038 0.816496804944448 0.5222325968436332
		outer loop
			vertex 771.3889406328021 0 636.3634100471553
			vertex -642.8241322695632 426.4012444898297 636.3634100471553
			vertex 0 0 999.9999674075561
		endloop
	endfacet
	facet normal 0.2461829982034376 0.8164966018437079 0.522232927507682
		outer loop
			vertex 257.1296167264783 852.8024889796594 -454.5452670470059
			vertex 771.3889406328021 0 636.3634100471553
			vertex 899.9537489960413 426.4012444898297 -90.90907150007467
		endloop
	endfacet
	facet normal -0.6564879730419824 -0.5443310508304477 0.5222329445305512
		outer loop
			vertex -642.8241322695632 426.4012444898297 636.3634100471553
			vertex -685.6790382395203 -568.5350529553513 -454.5452670470059
			vertex -42.85494215130421 -994.9363878985484 -90.90907150007467
		endloop
	endfacet
	facet normal -0.656487895460816 -0.5443310620177335 0.5222330303955076
		outer loop
			vertex 299.9846131498029 -710.6687709675053 636.3634100471553
			vertex -642.8241322695632 426.4012444898297 636.3634100471553
			vertex -42.85494215130421 -994.9363878985484 -90.90907150007467
		endloop
	endfacet
	facet normal -0.6564880857447154 -0.5443312197928238 0.5222326267422365
		outer loop
			vertex -642.8241322695632 426.4012444898297 636.3634100471553
			vertex 299.9846131498029 -710.6687709675053 636.3634100471553
			vertex 0 0 999.9999674075561
		endloop
	endfacet
	facet normal -0.6564875303897647 -0.5443313444525515 0.5222331949323267
		outer loop
			vertex -685.6790382395203 -568.5350529553513 -454.5452670470059
			vertex -642.8241322695632 426.4012444898297 636.3634100471553
			vertex -985.664013202793 142.13371801215408 -90.90907150007467
		endloop
	endfacet
	facet normal 0.8206099267923535 -0.5443310705870175 -0.17407766555029322
		outer loop
			vertex 299.9846131498029 -710.6687709675053 636.3634100471553
			vertex 85.70987525727166 -568.5350529553513 -818.1814625939371
			vertex 557.1142298762812 142.13371801215408 -818.1814625939371
		endloop
	endfacet
	facet normal 0.8206099375367419 -0.5443310574582949 -0.17407765595354027
		outer loop
			vertex 899.9537489960413 426.4012444898297 -90.90907150007467
			vertex 299.9846131498029 -710.6687709675053 636.3634100471553
			vertex 557.1142298762812 142.13371801215408 -818.1814625939371
		endloop
	endfacet
	facet normal 0.8206099449594377 -0.5443310513037201 -0.1740776402076249
		outer loop
			vertex 299.9846131498029 -710.6687709675053 636.3634100471553
			vertex 899.9537489960413 426.4012444898297 -90.90907150007467
			vertex 771.3889406328021 0 636.3634100471553
		endloop
	endfacet
	facet normal 0.8206099912045157 -0.5443309734820201 -0.17407766555029655
		outer loop
			vertex 85.70987525727166 -568.5350529553513 -818.1814625939371
			vertex 299.9846131498029 -710.6687709675053 636.3634100471553
			vertex -42.85494215130421 -994.9363878985484 -90.90907150007467
		endloop
	endfacet
	facet normal -0.41030494848887694 0.2721655254051243 -0.8703882903776293
		outer loop
			vertex -514.2592334529566 852.8024889796594 -90.90907150007467
			vertex 557.1142298762812 142.13371801215408 -818.1814625939371
			vertex 85.70987525727166 -568.5350529553513 -818.1814625939371
		endloop
	endfacet
	facet normal -0.410304946374842 0.2721655266139967 -0.8703882909961874
		outer loop
			vertex -685.6790382395203 -568.5350529553513 -454.5452670470059
			vertex -514.2592334529566 852.8024889796594 -90.90907150007467
			vertex 85.70987525727166 -568.5350529553513 -818.1814625939371
		endloop
	endfacet
	facet normal -0.41030458028259365 0.2721655266139577 -0.8703884635736343
		outer loop
			vertex -514.2592334529566 852.8024889796594 -90.90907150007467
			vertex -685.6790382395203 -568.5350529553513 -454.5452670470059
			vertex -985.664013202793 142.13371801215408 -90.90907150007467
		endloop
	endfacet
	facet normal -0.41030497976201685 0.2721654782590919 -0.8703882903776284
		outer loop
			vertex 557.1142298762812 142.13371801215408 -818.1814625939371
			vertex -514.2592334529566 852.8024889796594 -90.90907150007467
			vertex 257.1296167264783 852.8024889796594 -454.5452670470059
		endloop
	endfacet
endsolid Truncated Tetrahedron
